{
  "amazonRegion": "global",
  "highlightsFolder": "Notes",
  "lastSyncMode": "amazon",
  "isLoggedIn": true,
  "syncOnBoot": false,
  "downloadBookMetadata": true,
  "lastSyncDate": "2022-03-10T12:27:14.758Z"
}